{
  "stats": {
    "suites": 1,
    "tests": 1,
    "passes": 1,
    "pending": 0,
    "failures": 0,
    "start": "2021-07-08T21:01:22.953Z",
    "end": "2021-07-08T21:01:27.274Z",
    "duration": 4321,
    "testsRegistered": 1,
    "passPercent": 100,
    "pendingPercent": 0,
    "other": 0,
    "hasOther": false,
    "skipped": 0,
    "hasSkipped": false
  },
  "results": [
    {
      "uuid": "bb7ce10a-0358-4bd2-a4b8-f38fc187c035",
      "title": "",
      "fullFile": "cypress/integration/account/title.spec.js",
      "file": "cypress/integration/account/title.spec.js",
      "beforeHooks": [],
      "afterHooks": [],
      "tests": [],
      "suites": [
        {
          "uuid": "1ee51ddf-6e32-490a-be43-8471a9cd8ca7",
          "title": "Test suite for account",
          "fullFile": "",
          "file": "",
          "beforeHooks": [],
          "afterHooks": [],
          "tests": [
            {
              "title": "should have a My Account title",
              "fullTitle": "Test suite for account should have a My Account title",
              "timedOut": null,
              "duration": 4293,
              "state": "passed",
              "speed": "slow",
              "pass": true,
              "fail": false,
              "pending": false,
              "context": null,
              "code": "_navigationPage.navigateTo.accountsPage();\ncy.title().should('eq', 'My account – QA Playground');",
              "err": {},
              "uuid": "8cf1e8b9-3195-49f5-8adc-529915040e6e",
              "parentUUID": "1ee51ddf-6e32-490a-be43-8471a9cd8ca7",
              "isHook": false,
              "skipped": false
            }
          ],
          "suites": [],
          "passes": [
            "8cf1e8b9-3195-49f5-8adc-529915040e6e"
          ],
          "failures": [],
          "pending": [],
          "skipped": [],
          "duration": 4293,
          "root": false,
          "rootEmpty": false,
          "_timeout": 2000
        }
      ],
      "passes": [],
      "failures": [],
      "pending": [],
      "skipped": [],
      "duration": 0,
      "root": true,
      "rootEmpty": true,
      "_timeout": 2000
    }
  ],
  "meta": {
    "mocha": {
      "version": "7.0.1"
    },
    "mochawesome": {
      "options": {
        "quiet": false,
        "reportFilename": "mochawesome",
        "saveHtml": false,
        "saveJson": true,
        "consoleReporter": "spec",
        "useInlineDiffs": false,
        "code": true
      },
      "version": "6.2.2"
    },
    "marge": {
      "options": {
        "id": "default",
        "reportDir": "cypress/results/mochawesome",
        "overwrite": false,
        "html": false,
        "json": true
      },
      "version": "5.2.0"
    }
  }
}